﻿menu_start_game_1|welcome, adventyrer, before begin your journey, there is some questions you need to answer. First, please choose your sex
menu_camp_modify_banner|Modify banner
mno_custom_your_banner|Custom your banner
mno_put_banner_away|Put banner away
mno_change_banner|Change banner
mno_go_back_oo|back
mno_recruit_soldiers|Recruit soldiers
mno_severance_of_prisoners|Severance of prisoners
menu_recruit_soldier_begin|You need 2000 denars to recruit soldiers
menu_recruit_soldier_cost|{reg60} {s3}s join your company, they will improved by training.
menu_severance_of_prisoner_begin|Are you sure to sever all prisoners?
mno_yes|Yes。 
menu_rolf_last_battle|{s1} charges towards you
mno_battle_command_arrangements|Battle command arrangements
menu_battle_command|Battle command opitons: ^^^High commander： {s59} ^^Inftary captain： {s60} ^^Archers captain： {s61} ^^Cavalry captain： {s62} ^^^Join battle orders：『{s58}』
mno_change_leader|Change high commander
mno_designated_detachment_captain|Designate detachment captain
mno_enter_battlefield_order|Enter battlefield order: {s58}
mno_go_back_decision|【Go back decision】 
menu_choose_next_battle_leader|Choose the nest battle leader. ^^The commander now is ：{s59}
menu_choose_detachment_captain|Choose detachment captains. Status now:^^Inftary captain： {s60} ^^Archers captain： {s61} ^^Cavalry captain： {s62} 
mno_change_infantry_captain|Change infantry captain
mno_change_archers_captain|Change archers captain
mno_change_cavalry_captain|Change cavalary captain
menu_battle_command_choose_captain|Choose another captain for {s60}. ^^The capiatin now is {s59}
mno_cancel_captain|Cancel the captain of {s60}
mno_tournament_bet_special|Bet the special reward
menu_tournament_bet_special_per|{s1}
mno_stake_1000_denars|Stake 1000 denars 
mno_village_cave_doorCave door
mno_village_cave_r_door| Enter
mno_village_cave_f_door|Enter
mno_village_cave_l_door|Back
mno_village_cave_out_door|Enter
mno_village_cave_ff_door| Enter the depth
menu_distress_call_from_zendar|You received a urgent lettle from Zendar, that the dark army is concentrating near Zendar and will assult it anytime, so they need your help.
menu_attack_zendar_order|You received a lettle form the lead of the dark army, he appointed you to be the high commander of the dark army and want you occupy Zendar as a base of the dark army for the further invasion to other kingdoms.
mno_talk_to_count_arrasies|Talk with Count Arrasies
mno_zendar_start_siege|iege Zendar
menu_zendar_castle|You are at the outside of {s2}. {s11}
menu_zendar_dark|You entered Zendar and it belongs to the dark army now. 
menu_per_battle_zendar|You entered Zendar, and people are gathering in the plaza.
menu_pirates_fort|You landed on a unnamed island
menu_horse_ground|You entered the horse ground
menu_distress_call_from_susu|You received a letter from Suker, the tavern keeper of Zendar:^^Dear {Sir/Lady}{playername}, I heard a lot of stories about your fighting with river pirates. I very much appreciate for your protection on us Zendars. Now I need a favour from you. Could you please come have a talk in my store?
menu_letter_from_count_arrasies|You received a letter from Count Arrasies in Zendar:^^{playername}, please come to Zendar as soon as possible. There's something important we need to talk about.

mno_camp_forces_command| Order.
menu_forces_command|What are you doing?
mno_recall_troops|Call back the NPC troops.
menu_recall_troops_yes_or_no|Are you sure to recall {s1}'s party? 
mno_recall_troops_yes|Yes, immediately.
mno_recall_troops_no|No, I don't.

menu_join_manhunter_party_wounded|You got wounded in the battle. The companions sent you back to Zendar. It will take a whole day for your recovery.
menu_save_melva|Meanwhile, Rolf reached the forest north to Swadia for finding Melva. The bandits left a few traces except for anything about Melva. Then he arrived in Paravin. When he heard some guards's talks about "a chief of forest bandits was caught", he decided to investigate in the prision of Paravin.

menu_meet_forager_party|You encounter a forager on a requisition for food.
mno_kingdom_armory|Royal armory. 
mno_exchange_members|Lay up soldiers. 
mno_warehouse|Arrange the warehouse. 
mno_camp_action|Prepare for battle. 

mno_sail_from_port|Put out to sea. 
menu_save_melva|At the same time, Rolf reached the forest north to Swadia to find Melva. Except for the bandits' traces, there left nothing about Melva. Then Rolf arrived in Paravin. When he heard some guards's talks about 'a chief of forest bandits was caught', he decided to investigate in the prision of Paravin.
mno_lord_relations|Relationship with lords. 
mno_zendar_rest_here|Rest on the spot.
mno_the_lake|Walk along the lake. 
mno_dungeon_passage_02|Dungeon gate.
menu_the_underground_city|You reached the lake. 
mno_camp_action_traps|Set a trap. 
menu_camp_digging_traps|The 'Trap' can be triggered automatically in the battle when enemies get close to our party. A trap confuses and damages the enemies and gives fatal blow to the horses within the coverage.{reg5?^^You've set a trap near {s2}. There left {reg6} hours for validity. Building a new trap will disable the old one. :}^^A new trap will have 48 hours of validity. Your troop's Engineer is on level {reg2}. So, you can build a trap of {reg7} meters in diameter in {reg3}.{reg4} hour(s). What are you doing now?  
mno_digging_a_trap|{reg1? Set up a new trap here (It costs one 'Tools'. You have {reg1} now). :You need a 'Tool' to build a trap.}
menu_battle_debrief|{s11}^^Your Casualties:{s8}{s10}^^Enemy Casualties:{s9}^^{s58}
mno_camp_action_sell_the_dummy|Feint 
menu_camp_sell_the_dummy|When you encounter an enemy troop, some other enemy troops nearby might join the battle. To avoid a fight against heavy odds, you may send out several companions in advance to confuse and deceive the other troops nearby so that they will not join the battle in time. ^^Each person you send is able to interfere only one troop. Higher 'Intelligence' he/she has, compared to the enemy leader's, higher chance of success you have. Whatever succeed or not, they will be back to your troop after battle. ^^{reg7?{s1} has finished and been on the way back:{reg5?You have {reg6?sent:chosen} {s1} {reg6?:to} leave temporarily for the task:You have not sent anyone}}. {s9}. What will you do?
mno_select_companion|{reg5?Go on with another NPC.:Choose a NPC for the task.} {reg9?:{s10}}
mno_done_and_execute|Confirm. Send them to interfere enemy troops to join the battle.
mno_call_them_back|Cancel. Call everyone back right now.
mno_auto_sell|Auto Sell
menu_auto_sell_menu|Except for foods, goods and books, the items in NPC's inventory (equipment excluded) will all be automatically sold to the {reg1?relevant merchant:elder} of the {reg1?town:village}.
mno_sell_all|Sell them all.
mno_view_companions_inventory|Check NPC's inventory.
mno_view_loot|Loot the war spoils by yourself.
mno_loot_with_compantions|Have NPC loot all items of {reg1} dinar(s) or above in value. Then leave.
mno_Nothing_leave|Do not loot and leave.
menu_view_companions_inventory|Whose inventory are you want to check?
mno_set_limit|Set the bottom price for NPC's looting.


mno_camp_action_2|Troop Setting
mno_camp_action_3|Slots Machine
mno_battle_command_arrangements|Battle Deployment.
mno_meet_with_village_elder|Meet with the elder.
mno_camp_game_setting|Game setting.
menu_game_setting|Game setting.
mno_camp_custom_button|Custom Hot-keys.
mno_camp_mod_setting|MOD setting.
mno_camp_action_5|Combination Horse And Armor
mno_arms_upgrade_tree|Upgrade Tree
mno_camp_set_player_linse|Player's battle-lines.
menu_town_trade_with_someone|You came to the {s1}
mno_trade|Trade
mno_chat|Chat

menu_camp_modify_banner|Banner options
mno_choose_your_banner|Choose your banner.
mno_custom_your_banner|Custom a new banner.
mno_put_banner_away|Put the current banner away.
mno_change_banner|Change banner
mno_go_back_oo|Return.
menu_start_game_0|Welcome, adventurer, to Mount&Blade. Before you can start playing the game you must create a character. To begin, select your character's gender.
menu_start_quest_1|What will you do when your party is surrounded by enemies?
mno_quest_1_answer_1|Fight them off myself.
mno_quest_1_answer_2|Have my soldiers to deal with it.
mno_quest_1_answer_3|Kill the lone enemy at the chance.
menu_start_quest_2|What do you think the most important thing for an invincible army?
mno_quest_2_answer_1|Leadership.
mno_quest_2_answer_2|Mobility.
mno_quest_2_answer_3|Strength.
menu_start_quest_3|What do you think the key to win the battle?
mno_quest_3_answer_1|The power of the army.
mno_quest_3_answer_2|Wise tactics.
mno_quest_3_answer_3|My own strength.
menu_start_quest_4|Do you believe that God exists in the world?
mno_quest_4_answer_1|No, never.
mno_quest_4_answer_2|Yes, somewhere in heaven.
mno_quest_4_answer_3|In my heart.
menu_start_quest_5|What can save us from the extinction on the end of the world?
mno_quest_5_answer_1|The great gods.
mno_quest_5_answer_2|A wealth of knowledge.
mno_quest_5_answer_3|My own strength.
menu_start_quest_6|What do you think of the Dark Forces?
mno_quest_6_answer_1|They are evil enemies.
mno_quest_6_answer_2|They are powerful.
mno_quest_6_answer_3|It is but a fairytale.
menu_start_quest_7|What do you pursue for your life?
mno_quest_7_answer_1|Knowledge.
mno_quest_7_answer_2|Wealth.
mno_quest_7_answer_3|Power.
menu_start_quest_8|What do you expect of the world?
mno_quest_8_answer_1|Love, hope, and courage.
mno_quest_8_answer_2|Live free in my own way.
mno_quest_8_answer_3|Reunification of perfect order.
menu_start_quest_9|What kind of features a hero must have?
mno_quest_9_answer_1|Indomitable spirit.
mno_quest_9_answer_2|Great strength.
mno_quest_9_answer_3|Superior courage.
menu_start_quest_10|At last, what do you fight for?
mno_quest_10_answer_1|Reputation and honour.
mno_quest_10_answer_2|Defending my homeland.
mno_quest_10_answer_3|Protecting the weak and my love.
menu_start_quest_f|Now, let's see what you've got.

